{
  "name": "storefront",
  "$schema": "../../../node_modules/nx/schemas/project-schema.json",
  "projectType": "application",
  "prefix": "app",
  "sourceRoot": "client/apps/storefront/src",
  "tags": [
    "domain:storefront",
    "type:app"
  ],
  "targets": {
    "build": {
      "executor": "@nx/angular:webpack-browser",
      "outputs": [
        "{options.outputPath}"
      ],
      "options": {
        "outputPath": "dist/client/apps/storefront/browser",
        "index": "client/apps/storefront/src/index.html",
        "main": "client/apps/storefront/src/main.ts",
        "polyfills": [
          "zone.js"
        ],
        "tsConfig": "client/apps/storefront/tsconfig.app.json",
        "inlineStyleLanguage": "scss",
        "assets": [
          "client/apps/storefront/src/favicon.ico",
          "client/apps/storefront/src/assets"
        ],
        "styles": [
          "client/apps/storefront/src/styles.scss"
        ],
        "scripts": [],
        "customWebpackConfig": {
          "path": "client/apps/storefront/webpack.config.ts"
        }
      },
      "configurations": {
        "production": {
          "budgets": [
            {
              "type": "initial",
              "maximumWarning": "500kb",
              "maximumError": "1mb"
            },
            {
              "type": "anyComponentStyle",
              "maximumWarning": "2kb",
              "maximumError": "4kb"
            }
          ],
          "outputHashing": "all",
          "customWebpackConfig": {
            "path": "client/apps/storefront/webpack.prod.config.ts"
          }
        },
        "development": {
          "buildOptimizer": false,
          "optimization": false,
          "vendorChunk": true,
          "extractLicenses": false,
          "sourceMap": true,
          "namedChunks": true
        }
      },
      "defaultConfiguration": "production"
    },
    "serve": {
      "executor": "@nx/angular:module-federation-dev-server",
      "options": {
        "port": 4200,
        "publicHost": "http://localhost:4200"
      },
      "configurations": {
        "production": {
          "buildTarget": "storefront:build:production"
        },
        "development": {
          "buildTarget": "storefront:build:development"
        }
      },
      "defaultConfiguration": "development"
    },
    "extract-i18n": {
      "executor": "@angular-devkit/build-angular:extract-i18n",
      "options": {
        "buildTarget": "storefront:build"
      }
    },
    "lint": {
      "executor": "@nx/eslint:lint"
    },
    "test": {
      "executor": "@nx/jest:jest",
      "outputs": [
        "{workspaceRoot}/coverage/{projectRoot}"
      ],
      "options": {
        "jestConfig": "client/apps/storefront/jest.config.ts"
      }
    },
    "serve-static": {
      "executor": "@nx/web:file-server",
      "options": {
        "buildTarget": "storefront:build",
        "port": 4200,
        "spa": true
      }
    },
    "server": {
      "dependsOn": [
        "build"
      ],
      "executor": "@nx/angular:webpack-server",
      "options": {
        "outputPath": "dist/client/apps/storefront/server",
        "main": "client/apps/storefront/server.ts",
        "tsConfig": "client/apps/storefront/tsconfig.server.json",
        "inlineStyleLanguage": "scss",
        "customWebpackConfig": {
          "path": "client/apps/storefront/webpack.server.config.ts"
        }
      },
      "configurations": {
        "production": {
          "outputHashing": "media"
        },
        "development": {
          "buildOptimizer": false,
          "optimization": false,
          "sourceMap": true,
          "extractLicenses": false,
          "vendorChunk": true
        }
      },
      "defaultConfiguration": "production"
    },
    "serve-ssr": {
      "executor": "@nx/angular:module-federation-dev-ssr",
      "configurations": {
        "development": {
          "browserTarget": "storefront:build:development",
          "serverTarget": "storefront:server:development"
        },
        "production": {
          "browserTarget": "storefront:build:production",
          "serverTarget": "storefront:server:production"
        }
      },
      "defaultConfiguration": "development"
    },
    "prerender": {
      "executor": "@angular-devkit/build-angular:prerender",
      "options": {
        "routes": [
          "/"
        ]
      },
      "configurations": {
        "development": {
          "browserTarget": "storefront:build:development",
          "serverTarget": "storefront:server:development"
        },
        "production": {
          "browserTarget": "storefront:build:production",
          "serverTarget": "storefront:server:production"
        }
      },
      "defaultConfiguration": "production"
    }
  }
}
